<?xml version="1.0" encoding="UTF-8" standalone="no"?>
<!-- Created with Inkscape (http://www.inkscape.org/) -->
<svg
   xmlns:dc="http://purl.org/dc/elements/1.1/"
   xmlns:cc="http://creativecommons.org/ns#"
   xmlns:rdf="http://www.w3.org/1999/02/22-rdf-syntax-ns#"
   xmlns:svg="http://www.w3.org/2000/svg"
   xmlns="http://www.w3.org/2000/svg"
   xmlns:sodipodi="http://sodipodi.sourceforge.net/DTD/sodipodi-0.dtd"
   xmlns:inkscape="http://www.inkscape.org/namespaces/inkscape"
   width="727.06592"
   height="1017.3615"
   id="svg2633"
   sodipodi:version="0.32"
   inkscape:version="0.46"
   version="1.0"
   sodipodi:docname="ain.isol.svg"
   inkscape:output_extension="org.inkscape.output.svg.inkscape">
  <defs
     id="defs2635">
    <inkscape:perspective
       sodipodi:type="inkscape:persp3d"
       inkscape:vp_x="0 : 526.18109 : 1"
       inkscape:vp_y="0 : 1000 : 0"
       inkscape:vp_z="744.09448 : 526.18109 : 1"
       inkscape:persp3d-origin="372.04724 : 350.78739 : 1"
       id="perspective2641" />
  </defs>
  <sodipodi:namedview
     id="base"
     pagecolor="#ffffff"
     bordercolor="#666666"
     borderopacity="1.0"
     gridtolerance="10000"
     guidetolerance="10"
     objecttolerance="10"
     inkscape:pageopacity="0.0"
     inkscape:pageshadow="2"
     inkscape:zoom="0.35"
     inkscape:cx="375"
     inkscape:cy="520"
     inkscape:document-units="px"
     inkscape:current-layer="layer1"
     showgrid="false"
     inkscape:window-width="645"
     inkscape:window-height="734"
     inkscape:window-x="0"
     inkscape:window-y="28" />
  <metadata
     id="metadata2638">
    <rdf:RDF>
      <cc:Work
         rdf:about="">
        <dc:format>image/svg+xml</dc:format>
        <dc:type
           rdf:resource="http://purl.org/dc/dcmitype/StillImage" />
      </cc:Work>
    </rdf:RDF>
  </metadata>
  <g
     inkscape:label="Layer 1"
     inkscape:groupmode="layer"
     id="layer1"
     transform="translate(-11.467041,-23.681427)">
    <path
       style="fill:#000000"
       d="M 229.63359,1040.3405 C 185.53019,1035.8171 149.98859,1026.3508 119.54239,1011.0183 C 40.626194,971.27675 14.025794,923.82655 11.653394,818.56425 C 10.086744,749.0531 18.159994,701.9006 44.934844,624.1803 C 73.384994,541.59725 113.23379,468.4155 160.88359,411.24225 C 177.57619,391.2134 178.16454,382.04565 163.38359,372.28655 C 133.24554,352.38795 94.823344,300.65765 85.735394,267.74375 C 77.834044,239.1274 87.582144,202.43725 121.28539,133.94005 C 141.69899,92.452248 159.85624,63.181148 174.96439,47.404798 C 196.23349,25.195048 199.48269,23.572598 222.46439,23.686498 C 262.25859,23.883648 342.04929,44.617748 346.37289,55.884848 C 349.84539,64.934048 306.80024,174.4542 297.78909,179.4971 C 292.42119,182.50115 283.42789,182.4376 273.22699,179.3236 C 249.90029,172.20275 197.58114,167.63395 182.55384,171.40555 C 162.57714,176.4194 166.75464,189.04865 199.49049,222.6075 C 230.71629,254.61835 261.03824,273.56425 281.04409,273.56425 C 295.50784,273.56425 350.72174,236.03925 410.63499,185.4905 C 435.27314,164.7033 456.61394,148.87795 458.05899,150.323 C 459.50409,151.76805 457.24154,166.026 453.03114,182.0073 C 434.97484,250.5434 425.47839,284.3825 423.86209,285.94675 C 422.91139,286.8668 407.50859,298.29945 389.63359,311.3526 C 371.75859,324.4058 355.33429,338.11835 353.13514,341.82495 C 350.93599,345.53155 346.69314,348.56425 343.70654,348.56425 C 340.71994,348.56425 317.76924,365.14135 292.70499,385.40225 C 160.57044,492.21425 85.837044,596.74335 62.181794,707.83325 C 51.835794,756.4203 78.507994,816.5935 124.21614,847.7846 C 172.52294,880.7489 273.19369,903.5711 370.23024,903.55635 C 425.92869,903.54785 564.89187,888.4235 622.13357,876.1399 C 721.19817,854.88145 736.26177,853.3143 738.44497,864.03945 C 739.98767,871.6181 722.38097,884.1134 594.63357,966.1007 C 554.69867,991.7306 509.02969,1010.1614 459.63359,1020.5833 C 404.62854,1032.1885 266.14054,1044.0847 229.63359,1040.3405 z"
       id="path2507" />
  </g>
</svg>
