<?xml version="1.0" encoding="UTF-8" standalone="no"?>
<!-- Created with Inkscape (http://www.inkscape.org/) -->
<svg
   xmlns:dc="http://purl.org/dc/elements/1.1/"
   xmlns:cc="http://creativecommons.org/ns#"
   xmlns:rdf="http://www.w3.org/1999/02/22-rdf-syntax-ns#"
   xmlns:svg="http://www.w3.org/2000/svg"
   xmlns="http://www.w3.org/2000/svg"
   xmlns:sodipodi="http://sodipodi.sourceforge.net/DTD/sodipodi-0.dtd"
   xmlns:inkscape="http://www.inkscape.org/namespaces/inkscape"
   width="661.42279"
   height="406.83472"
   id="svg2417"
   sodipodi:version="0.32"
   inkscape:version="0.46"
   version="1.0"
   sodipodi:docname="baa.init.alt3.svg"
   inkscape:output_extension="org.inkscape.output.svg.inkscape">
  <defs
     id="defs2419">
    <inkscape:perspective
       sodipodi:type="inkscape:persp3d"
       inkscape:vp_x="0 : 526.18109 : 1"
       inkscape:vp_y="0 : 1000 : 0"
       inkscape:vp_z="744.09448 : 526.18109 : 1"
       inkscape:persp3d-origin="372.04724 : 350.78739 : 1"
       id="perspective2425" />
  </defs>
  <sodipodi:namedview
     id="base"
     pagecolor="#ffffff"
     bordercolor="#666666"
     borderopacity="1.0"
     gridtolerance="10000"
     guidetolerance="10"
     objecttolerance="10"
     inkscape:pageopacity="0.0"
     inkscape:pageshadow="2"
     inkscape:zoom="0.35"
     inkscape:cx="375"
     inkscape:cy="520"
     inkscape:document-units="px"
     inkscape:current-layer="layer1"
     showgrid="false"
     inkscape:window-width="645"
     inkscape:window-height="734"
     inkscape:window-x="50"
     inkscape:window-y="28" />
  <metadata
     id="metadata2422">
    <rdf:RDF>
      <cc:Work
         rdf:about="">
        <dc:format>image/svg+xml</dc:format>
        <dc:type
           rdf:resource="http://purl.org/dc/dcmitype/StillImage" />
      </cc:Work>
    </rdf:RDF>
  </metadata>
  <g
     inkscape:label="Layer 1"
     inkscape:groupmode="layer"
     id="layer1"
     transform="translate(-683.57429,-917.51625)">
    <path
       style="fill:#000000"
       d="M 683.57429,1323.2818 C 683.57429,1322.2285 689.04324,1309.5043 695.72744,1295.0059 C 702.41169,1280.5075 714.02764,1253.767 721.54059,1235.5825 L 735.20059,1202.52 L 778.56854,1199.7103 C 841.78844,1195.6144 874.02299,1184.8949 895.88419,1160.6971 C 905.79439,1149.7277 915.24449,1134.0442 916.88434,1125.8449 C 920.31479,1108.6925 927.14179,1102.7126 934.68349,1110.2543 C 938.33399,1113.9048 937.45304,1121.661 931.77674,1135.8476 C 923.91894,1155.4861 924.00569,1156.5765 934.23989,1166.8107 C 943.36699,1175.9378 948.89264,1177.0518 973.82494,1174.791 C 1017.0241,1170.8738 1116.1986,1137.3764 1134.0965,1120.6573 C 1150.4908,1105.3427 1150.3454,1098.2788 1132.7858,1056.9806 C 1120.7986,1028.788 1121.1601,1019.7348 1135.3876,991.82179 C 1141.8849,979.07464 1152.4186,956.78134 1158.7957,942.28114 C 1165.1728,927.78099 1172.6192,916.66009 1175.3432,917.56814 C 1178.0673,918.47614 1185.2675,932.58994 1191.3436,948.93209 C 1205.387,986.70224 1216.2823,991.71404 1257.2462,979.24694 C 1273.1016,974.42144 1299.3319,963.57189 1315.5357,955.13684 L 1344.9971,939.80034 L 1341.5728,954.22274 C 1339.6895,962.15504 1335.9969,978.55799 1333.367,990.67369 C 1325.4504,1027.1452 1313.5995,1041.9729 1278.3504,1059.5099 C 1260.5985,1068.3418 1235.9686,1078.5103 1223.6173,1082.1065 C 1207.9936,1086.6555 1200.6248,1091.688 1199.4003,1098.6451 C 1195.7493,1119.389 1162.9665,1179.7568 1147.3368,1194.5172 C 1109.4428,1230.3038 1018.2841,1273.9263 955.91014,1286.1214 C 913.25514,1294.4611 897.61639,1291.7223 889.38509,1274.4709 L 882.62199,1260.2966 L 871.79769,1270.4655 C 857.71909,1283.6917 812.04579,1303.7601 775.22754,1312.8975 C 746.82349,1319.9468 683.57429,1327.1128 683.57429,1323.2818 z"
       id="path2659" />
  </g>
</svg>
