<?xml version="1.0" encoding="UTF-8" standalone="no"?>
<!-- Created with Inkscape (http://www.inkscape.org/) -->
<svg
   xmlns:dc="http://purl.org/dc/elements/1.1/"
   xmlns:cc="http://creativecommons.org/ns#"
   xmlns:rdf="http://www.w3.org/1999/02/22-rdf-syntax-ns#"
   xmlns:svg="http://www.w3.org/2000/svg"
   xmlns="http://www.w3.org/2000/svg"
   xmlns:sodipodi="http://sodipodi.sourceforge.net/DTD/sodipodi-0.dtd"
   xmlns:inkscape="http://www.inkscape.org/namespaces/inkscape"
   width="710.09106"
   height="422.22665"
   id="svg2839"
   sodipodi:version="0.32"
   inkscape:version="0.46"
   version="1.0"
   sodipodi:docname="baa.init.svg"
   inkscape:output_extension="org.inkscape.output.svg.inkscape">
  <defs
     id="defs2841">
    <inkscape:perspective
       sodipodi:type="inkscape:persp3d"
       inkscape:vp_x="0 : 526.18109 : 1"
       inkscape:vp_y="0 : 1000 : 0"
       inkscape:vp_z="744.09448 : 526.18109 : 1"
       inkscape:persp3d-origin="372.04724 : 350.78739 : 1"
       id="perspective2847" />
  </defs>
  <sodipodi:namedview
     id="base"
     pagecolor="#ffffff"
     bordercolor="#666666"
     borderopacity="1.0"
     gridtolerance="10000"
     guidetolerance="10"
     objecttolerance="10"
     inkscape:pageopacity="0.0"
     inkscape:pageshadow="2"
     inkscape:zoom="0.35"
     inkscape:cx="375"
     inkscape:cy="520"
     inkscape:document-units="px"
     inkscape:current-layer="layer1"
     showgrid="false"
     inkscape:window-width="645"
     inkscape:window-height="734"
     inkscape:window-x="150"
     inkscape:window-y="28" />
  <metadata
     id="metadata2844">
    <rdf:RDF>
      <cc:Work
         rdf:about="">
        <dc:format>image/svg+xml</dc:format>
        <dc:type
           rdf:resource="http://purl.org/dc/dcmitype/StillImage" />
      </cc:Work>
    </rdf:RDF>
  </metadata>
  <g
     inkscape:label="Layer 1"
     inkscape:groupmode="layer"
     id="layer1"
     transform="translate(83.616965,121.60828)">
    <path
       style="fill:#000000"
       d="M -83.616965,295.5559 C -83.616965,292.6357 -80.116565,285.3232 -75.838265,279.3059 C -71.559965,273.2886 -56.311265,248.11539 -41.952215,223.36539 L -15.844865,178.36539 L 19.019082,175.09079 C 38.194232,173.28974 85.383032,169.15524 123.88303,165.90299 C 240.18278,156.07859 410.87463,123.98539 501.38303,94.926093 C 536.65403,83.601693 576.38303,62.648243 576.38303,55.370343 C 576.38303,52.870693 568.26978,35.529543 558.35358,16.834493 L 540.32413,-17.156607 L 561.34913,-66.895607 C 572.91283,-94.252057 584.12443,-118.49546 586.26378,-120.76981 C 591.74633,-126.59846 608.37403,-101.15086 618.13448,-71.993907 C 631.62648,-31.689657 628.85848,6.9113929 609.02318,55.066643 C 577.78698,130.90064 548.23008,168.33049 500.98998,191.87619 C 441.93633,221.31014 244.70563,268.1805 126.38303,280.8988 C 97.508032,284.0025 49.276082,289.7647 19.200932,293.7036 C -45.854265,302.2239 -83.616965,302.9042 -83.616965,295.5559 z"
       id="path2657" />
  </g>
</svg>
