<?xml version="1.0" encoding="UTF-8" standalone="no"?>
<!-- Created with Inkscape (http://www.inkscape.org/) -->
<svg
   xmlns:dc="http://purl.org/dc/elements/1.1/"
   xmlns:cc="http://creativecommons.org/ns#"
   xmlns:rdf="http://www.w3.org/1999/02/22-rdf-syntax-ns#"
   xmlns:svg="http://www.w3.org/2000/svg"
   xmlns="http://www.w3.org/2000/svg"
   xmlns:sodipodi="http://sodipodi.sourceforge.net/DTD/sodipodi-0.dtd"
   xmlns:inkscape="http://www.inkscape.org/namespaces/inkscape"
   width="572.69678"
   height="278.72778"
   id="svg2688"
   sodipodi:version="0.32"
   inkscape:version="0.46"
   version="1.0"
   sodipodi:docname="daal.fina.svg"
   inkscape:output_extension="org.inkscape.output.svg.inkscape">
  <defs
     id="defs2690">
    <inkscape:perspective
       sodipodi:type="inkscape:persp3d"
       inkscape:vp_x="0 : 526.18109 : 1"
       inkscape:vp_y="0 : 1000 : 0"
       inkscape:vp_z="744.09448 : 526.18109 : 1"
       inkscape:persp3d-origin="372.04724 : 350.78739 : 1"
       id="perspective2696" />
  </defs>
  <sodipodi:namedview
     id="base"
     pagecolor="#ffffff"
     bordercolor="#666666"
     borderopacity="1.0"
     gridtolerance="10000"
     guidetolerance="10"
     objecttolerance="10"
     inkscape:pageopacity="0.0"
     inkscape:pageshadow="2"
     inkscape:zoom="0.35"
     inkscape:cx="375"
     inkscape:cy="520"
     inkscape:document-units="px"
     inkscape:current-layer="layer1"
     showgrid="false"
     inkscape:window-width="645"
     inkscape:window-height="734"
     inkscape:window-x="0"
     inkscape:window-y="28" />
  <metadata
     id="metadata2693">
    <rdf:RDF>
      <cc:Work
         rdf:about="">
        <dc:format>image/svg+xml</dc:format>
        <dc:type
           rdf:resource="http://purl.org/dc/dcmitype/StillImage" />
      </cc:Work>
    </rdf:RDF>
  </metadata>
  <g
     inkscape:label="Layer 1"
     inkscape:groupmode="layer"
     id="layer1"
     transform="translate(-88.651603,-392.99829)">
    <path
       style="fill:#000000"
       d="M 128.70302,667.24394 C 75.77492,658.31524 75.33337,644.17899 127.21167,619.50004 C 154.51562,606.51129 267.74107,570.46114 321.68177,557.58214 C 373.36062,545.24324 399.63122,525.07924 421.51042,480.95884 C 435.15132,453.45129 488.58157,392.99829 499.25272,392.99829 C 507.64807,392.99829 507.73077,395.92584 500.45157,435.43149 C 497.30127,452.52889 496.08362,471.93594 497.74572,478.55834 C 501.74602,494.49664 525.55037,507.99829 549.65037,507.99829 C 576.45937,507.99829 624.56747,494.82704 641.31452,482.90209 C 668.28072,463.70044 668.06397,474.25119 640.42167,526.36439 C 605.72107,591.78429 578.66277,612.54864 514.68807,622.85144 C 488.25017,627.10914 482.47407,626.51364 469.04937,618.14619 C 450.70222,606.71059 443.78347,596.23759 436.35762,568.66009 C 428.19507,538.34674 421.63677,540.93574 393.70397,585.49829 C 371.25602,621.31064 344.25592,650.79504 323.67942,661.96589 C 305.50767,671.83124 176.58417,675.32119 128.70302,667.24394 z"
       id="path2513" />
  </g>
</svg>
