<?xml version="1.0" encoding="UTF-8" standalone="no"?>
<!-- Created with Inkscape (http://www.inkscape.org/) -->
<svg
   xmlns:dc="http://purl.org/dc/elements/1.1/"
   xmlns:cc="http://creativecommons.org/ns#"
   xmlns:rdf="http://www.w3.org/1999/02/22-rdf-syntax-ns#"
   xmlns:svg="http://www.w3.org/2000/svg"
   xmlns="http://www.w3.org/2000/svg"
   xmlns:sodipodi="http://sodipodi.sourceforge.net/DTD/sodipodi-0.dtd"
   xmlns:inkscape="http://www.inkscape.org/namespaces/inkscape"
   width="292.24026"
   height="407.65692"
   id="svg2657"
   sodipodi:version="0.32"
   inkscape:version="0.46"
   version="1.0"
   sodipodi:docname="daal.isol.svg"
   inkscape:output_extension="org.inkscape.output.svg.inkscape">
  <defs
     id="defs2659">
    <inkscape:perspective
       sodipodi:type="inkscape:persp3d"
       inkscape:vp_x="0 : 526.18109 : 1"
       inkscape:vp_y="0 : 1000 : 0"
       inkscape:vp_z="744.09448 : 526.18109 : 1"
       inkscape:persp3d-origin="372.04724 : 350.78739 : 1"
       id="perspective2665" />
  </defs>
  <sodipodi:namedview
     id="base"
     pagecolor="#ffffff"
     bordercolor="#666666"
     borderopacity="1.0"
     gridtolerance="10000"
     guidetolerance="10"
     objecttolerance="10"
     inkscape:pageopacity="0.0"
     inkscape:pageshadow="2"
     inkscape:zoom="0.35"
     inkscape:cx="375"
     inkscape:cy="520"
     inkscape:document-units="px"
     inkscape:current-layer="layer1"
     showgrid="false"
     inkscape:window-width="645"
     inkscape:window-height="734"
     inkscape:window-x="0"
     inkscape:window-y="28" />
  <metadata
     id="metadata2662">
    <rdf:RDF>
      <cc:Work
         rdf:about="">
        <dc:format>image/svg+xml</dc:format>
        <dc:type
           rdf:resource="http://purl.org/dc/dcmitype/StillImage" />
      </cc:Work>
    </rdf:RDF>
  </metadata>
  <g
     inkscape:label="Layer 1"
     inkscape:groupmode="layer"
     id="layer1"
     transform="translate(-228.87987,-328.53372)">
    <path
       style="fill:#000000"
       d="M 229.84867,732.17014 C 223.00857,721.10259 254.21907,613.73025 266.08722,607.5 C 270.79547,605.0284 284.77267,601.42985 297.14769,599.50315 C 326.68189,594.905 407.83889,573.13495 430.06259,563.8493 C 439.69869,559.82305 448.82259,553.2979 450.33799,549.34885 C 451.85339,545.39985 442.75549,525.14115 430.12049,504.32948 C 417.48539,483.51788 407.34369,461.50748 407.58339,455.41753 C 407.82299,449.32758 418.51049,418.48128 431.33339,386.87018 C 461.40739,312.73138 465.59129,311.59328 492.55299,370.21758 C 523.37239,437.22968 526.01309,450.96608 515.66239,490.43033 C 506.10099,526.8851 471.33999,609.39455 453.97829,636.8449 C 427.55979,678.61479 392.36989,698.26114 301.78269,721.81504 C 238.54822,738.25684 234.01387,738.90959 229.84867,732.17014 z"
       id="path2515" />
  </g>
</svg>
