<?xml version="1.0" encoding="UTF-8" standalone="no"?>
<!-- Created with Inkscape (http://www.inkscape.org/) -->
<svg
   xmlns:dc="http://purl.org/dc/elements/1.1/"
   xmlns:cc="http://creativecommons.org/ns#"
   xmlns:rdf="http://www.w3.org/1999/02/22-rdf-syntax-ns#"
   xmlns:svg="http://www.w3.org/2000/svg"
   xmlns="http://www.w3.org/2000/svg"
   xmlns:sodipodi="http://sodipodi.sourceforge.net/DTD/sodipodi-0.dtd"
   xmlns:inkscape="http://www.inkscape.org/namespaces/inkscape"
   width="915.11737"
   height="635.92889"
   id="svg2416"
   sodipodi:version="0.32"
   inkscape:version="0.46"
   version="1.0"
   sodipodi:docname="lam-alef.init.svg"
   inkscape:output_extension="org.inkscape.output.svg.inkscape">
  <defs
     id="defs2418">
    <inkscape:perspective
       sodipodi:type="inkscape:persp3d"
       inkscape:vp_x="0 : 526.18109 : 1"
       inkscape:vp_y="0 : 1000 : 0"
       inkscape:vp_z="744.09448 : 526.18109 : 1"
       inkscape:persp3d-origin="372.04724 : 350.78739 : 1"
       id="perspective2424" />
  </defs>
  <sodipodi:namedview
     id="base"
     pagecolor="#ffffff"
     bordercolor="#666666"
     borderopacity="1.0"
     gridtolerance="10000"
     guidetolerance="10"
     objecttolerance="10"
     inkscape:pageopacity="0.0"
     inkscape:pageshadow="2"
     inkscape:zoom="0.35"
     inkscape:cx="375"
     inkscape:cy="520"
     inkscape:document-units="px"
     inkscape:current-layer="layer1"
     showgrid="false"
     inkscape:window-width="645"
     inkscape:window-height="734"
     inkscape:window-x="50"
     inkscape:window-y="28" />
  <metadata
     id="metadata2421">
    <rdf:RDF>
      <cc:Work
         rdf:about="">
        <dc:format>image/svg+xml</dc:format>
        <dc:type
           rdf:resource="http://purl.org/dc/dcmitype/StillImage" />
      </cc:Work>
    </rdf:RDF>
  </metadata>
  <g
     inkscape:label="Layer 1"
     inkscape:groupmode="layer"
     id="layer1"
     transform="translate(-82.441311,-28.683452)">
    <path
       style="fill:#000000"
       d="M 82.441311,658.52635 C 82.441311,654.8584 87.503811,650.35155 93.691311,648.5112 C 99.878811,646.67085 116.19131,639.95635 129.94131,633.5901 C 143.69131,627.22385 185.31631,609.18825 222.44131,593.511 C 295.43521,562.68695 371.67111,523.33635 393.74116,505.0915 L 407.54091,493.68345 L 399.99956,446.18345 C 395.85181,420.05845 386.92321,375.05845 380.15826,346.18345 C 373.39331,317.30845 363.13566,272.30845 357.36356,246.18345 C 351.59141,220.05845 344.45946,188.5314 341.51476,176.12335 C 336.45176,154.78925 337.43036,150.5777 359.52326,98.623349 C 388.38941,30.740702 389.50881,28.683452 397.57881,28.683452 C 402.21976,28.683452 407.50146,51.978552 415.71716,108.68345 C 422.09211,152.68345 435.33931,226.93345 445.15536,273.68345 C 454.97141,320.43345 464.21006,365.00685 465.68566,372.73545 C 467.52336,382.3605 462.59421,400.22885 450.03951,429.4533 C 439.95851,452.91955 432.56531,472.97405 433.61011,474.0189 C 441.40036,481.8091 552.67976,387.0211 583.52906,346.3177 C 604.38691,318.7972 643.82291,243.97075 691.84066,140.8056 C 711.50166,98.564249 756.70536,55.993749 774.60489,62.862499 C 783.06099,66.107349 795.12329,110.94 809.98149,194.34785 C 838.37439,353.7342 842.21329,372.95535 846.51189,377.25395 C 851.77569,382.51775 925.30619,349.25355 966.12189,323.14405 C 981.19829,313.49975 994.73419,306.80965 996.20169,308.2771 C 1004.1958,316.2712 974.85609,418.5253 960.78249,431.71945 C 948.06289,443.64415 831.46449,500.6288 811.69379,504.58295 C 799.38989,507.04375 797.64849,505.49855 792.99349,487.98995 C 784.27859,455.21105 753.53326,295.3521 749.91571,264.0088 C 740.44876,181.98525 718.83076,196.1035 674.90646,312.9958 C 624.19736,447.94385 573.69436,519.5473 485.90811,580.9588 C 430.19426,619.9338 386.26866,636.57075 297.44136,652.3411 C 225.85371,665.0507 82.441311,669.1765 82.441311,658.52635 z"
       id="path3211" />
  </g>
</svg>
