<?xml version="1.0" encoding="UTF-8" standalone="no"?>
<!-- Created with Inkscape (http://www.inkscape.org/) -->
<svg
   xmlns:dc="http://purl.org/dc/elements/1.1/"
   xmlns:cc="http://creativecommons.org/ns#"
   xmlns:rdf="http://www.w3.org/1999/02/22-rdf-syntax-ns#"
   xmlns:svg="http://www.w3.org/2000/svg"
   xmlns="http://www.w3.org/2000/svg"
   xmlns:sodipodi="http://sodipodi.sourceforge.net/DTD/sodipodi-0.dtd"
   xmlns:inkscape="http://www.inkscape.org/namespaces/inkscape"
   width="470.05893"
   height="714.22705"
   id="svg2510"
   sodipodi:version="0.32"
   inkscape:version="0.46"
   version="1.0"
   sodipodi:docname="lam.init.svg"
   inkscape:output_extension="org.inkscape.output.svg.inkscape">
  <defs
     id="defs2512">
    <inkscape:perspective
       sodipodi:type="inkscape:persp3d"
       inkscape:vp_x="0 : 526.18109 : 1"
       inkscape:vp_y="0 : 1000 : 0"
       inkscape:vp_z="744.09448 : 526.18109 : 1"
       inkscape:persp3d-origin="372.04724 : 350.78739 : 1"
       id="perspective2518" />
  </defs>
  <sodipodi:namedview
     id="base"
     pagecolor="#ffffff"
     bordercolor="#666666"
     borderopacity="1.0"
     gridtolerance="10000"
     guidetolerance="10"
     objecttolerance="10"
     inkscape:pageopacity="0.0"
     inkscape:pageshadow="2"
     inkscape:zoom="0.35"
     inkscape:cx="375"
     inkscape:cy="520"
     inkscape:document-units="px"
     inkscape:current-layer="layer1"
     showgrid="false"
     inkscape:window-width="645"
     inkscape:window-height="734"
     inkscape:window-x="50"
     inkscape:window-y="28" />
  <metadata
     id="metadata2515">
    <rdf:RDF>
      <cc:Work
         rdf:about="">
        <dc:format>image/svg+xml</dc:format>
        <dc:type
           rdf:resource="http://purl.org/dc/dcmitype/StillImage" />
      </cc:Work>
    </rdf:RDF>
  </metadata>
  <g
     inkscape:label="Layer 1"
     inkscape:groupmode="layer"
     id="layer1"
     transform="translate(-450.68482,244.75135)">
    <path
       style="fill:#000000"
       d="M 450.93297,462.92437 C 449.38717,458.89607 455.22632,443.18387 463.90882,428.00837 C 472.59137,412.83287 486.53137,387.16157 494.88662,370.96107 C 509.93292,341.7869 510.32477,341.4765 535.90372,338.4702 C 581.26267,333.13915 609.48547,320.47575 635.47527,293.793 C 648.7169,280.19835 660.7218,270.2464 662.153,271.67755 C 663.5841,273.10865 659.9049,283.7866 653.977,295.4063 C 644.6323,313.72345 644.1496,317.48365 650.3471,323.6812 C 662.4244,335.75845 740.9141,314.77685 806.1943,282.02065 C 825.644,272.26115 843.1898,261.68245 845.1848,258.5124 C 847.1799,255.34235 847.783,241.49865 846.5251,227.74865 C 845.2671,213.99865 839.6163,148.74865 833.9676,82.748652 C 828.3189,16.748652 821.681,-57.370098 819.2167,-81.959748 L 814.7362,-126.6681 L 850.0402,-185.70975 C 869.4574,-218.1826 886.9587,-244.75135 888.932,-244.75135 C 890.9053,-244.75135 894.0409,-210.43885 895.8999,-168.50135 C 897.7589,-126.56385 901.3328,-73.126348 903.8418,-49.751348 C 912.7539,33.278402 920.4045,132.98045 920.7219,170.2299 C 920.9994,202.7974 918.7945,212.83465 904.7621,242.88325 C 854.3913,350.74617 795.4868,399.80607 670.6215,437.89227 C 624.09137,452.08487 599.81767,452.01147 583.92652,437.63017 C 575.70612,430.19077 573.05787,430.58667 548.79382,442.88227 C 499.27712,467.97427 456.25212,476.78587 450.93297,462.92437 z"
       id="path2654" />
  </g>
</svg>
